%YAML 1.1
%TAG !u! tag:unity3d.com,2011:
--- !u!244 &-4001039039696994074
AudioMixerEffectController:
  m_ObjectHideFlags: 3
  m_CorrespondingSourceObject: {fileID: 0}
  m_PrefabInstance: {fileID: 0}
  m_PrefabAsset: {fileID: 0}
  m_Name: 
  m_EffectID: a7b5e82ee1800bd4aa344abd99ec7ba0
  m_EffectName: Attenuation
  m_MixLevel: c22fa813eab827441919fd8c6a8703b8
  m_Parameters: []
  m_SendTarget: {fileID: 0}
  m_EnableWetMix: 0
  m_Bypass: 0
--- !u!241 &24100000
AudioMixerController:
  m_ObjectHideFlags: 0
  m_CorrespondingSourceObject: {fileID: 0}
  m_PrefabInstance: {fileID: 0}
  m_PrefabAsset: {fileID: 0}
  m_Name: Mix Audio
  m_OutputGroup: {fileID: 0}
  m_MasterGroup: {fileID: 24300002}
  m_Snapshots:
  - {fileID: 24500006}
  m_StartSnapshot: {fileID: 24500006}
  m_SuspendThreshold: -80
  m_EnableSuspend: 1
  m_UpdateMode: 0
  m_ExposedParameters: []
  m_AudioMixerGroupViews:
  - guids:
    - c7ba0279102f2174f94aee6cba47a47c
    - 92c0a97f7921c1c4db5df60b73c6838c
    - 6e7f67e09dceb4346af3a23cd74a0ccc
    name: View
  m_CurrentViewIndex: 0
  m_TargetSnapshot: {fileID: 24500006}
--- !u!243 &24300002
AudioMixerGroupController:
  m_ObjectHideFlags: 0
  m_CorrespondingSourceObject: {fileID: 0}
  m_PrefabInstance: {fileID: 0}
  m_PrefabAsset: {fileID: 0}
  m_Name: Master
  m_AudioMixer: {fileID: 24100000}
  m_GroupID: c7ba0279102f2174f94aee6cba47a47c
  m_Children:
  - {fileID: 9158363787580954142}
  - {fileID: 4606004561576325446}
  m_Volume: bbddcdaed3db95d45bb631857bfaa930
  m_Pitch: bce0b66f1f99e134496d43ed49a531da
  m_Send: 00000000000000000000000000000000
  m_Effects:
  - {fileID: 24400004}
  m_UserColorIndex: 0
  m_Mute: 0
  m_Solo: 0
  m_BypassEffects: 0
--- !u!244 &24400004
AudioMixerEffectController:
  m_ObjectHideFlags: 3
  m_CorrespondingSourceObject: {fileID: 0}
  m_PrefabInstance: {fileID: 0}
  m_PrefabAsset: {fileID: 0}
  m_Name: 
  m_EffectID: 07148036f5120a64bb7ca8f92b3000a5
  m_EffectName: Attenuation
  m_MixLevel: e552f8d480779d1419a6756d26a6adad
  m_Parameters: []
  m_SendTarget: {fileID: 0}
  m_EnableWetMix: 0
  m_Bypass: 0
--- !u!245 &24500006
AudioMixerSnapshotController:
  m_ObjectHideFlags: 0
  m_CorrespondingSourceObject: {fileID: 0}
  m_PrefabInstance: {fileID: 0}
  m_PrefabAsset: {fileID: 0}
  m_Name: Snapshot
  m_AudioMixer: {fileID: 24100000}
  m_SnapshotID: c3bb8d03b4c23e74aa40e678b44003ad
  m_FloatValues: {}
  m_TransitionOverrides: {}
--- !u!243 &4606004561576325446
AudioMixerGroupController:
  m_ObjectHideFlags: 0
  m_CorrespondingSourceObject: {fileID: 0}
  m_PrefabInstance: {fileID: 0}
  m_PrefabAsset: {fileID: 0}
  m_Name: Dead
  m_AudioMixer: {fileID: 24100000}
  m_GroupID: 6e7f67e09dceb4346af3a23cd74a0ccc
  m_Children: []
  m_Volume: 9991c2dc185c7d64aa1600cf617382bb
  m_Pitch: a5d2d84a7db655243bb3b8237ed507e1
  m_Send: 00000000000000000000000000000000
  m_Effects:
  - {fileID: -4001039039696994074}
  m_UserColorIndex: 0
  m_Mute: 0
  m_Solo: 0
  m_BypassEffects: 0
--- !u!244 &7467197176626938955
AudioMixerEffectController:
  m_ObjectHideFlags: 3
  m_CorrespondingSourceObject: {fileID: 0}
  m_PrefabInstance: {fileID: 0}
  m_PrefabAsset: {fileID: 0}
  m_Name: 
  m_EffectID: 8408c357c983d7540b8bdd5040d44f6e
  m_EffectName: Attenuation
  m_MixLevel: b8544e0a3c7057646b722f5a0a704a1c
  m_Parameters: []
  m_SendTarget: {fileID: 0}
  m_EnableWetMix: 0
  m_Bypass: 0
--- !u!243 &9158363787580954142
AudioMixerGroupController:
  m_ObjectHideFlags: 0
  m_CorrespondingSourceObject: {fileID: 0}
  m_PrefabInstance: {fileID: 0}
  m_PrefabAsset: {fileID: 0}
  m_Name: GunShot
  m_AudioMixer: {fileID: 24100000}
  m_GroupID: 92c0a97f7921c1c4db5df60b73c6838c
  m_Children: []
  m_Volume: b684eff8693710a4b8dfecaaf3837005
  m_Pitch: 7291a8230116ff44db7b4fc9c3f8a233
  m_Send: 00000000000000000000000000000000
  m_Effects:
  - {fileID: 7467197176626938955}
  m_UserColorIndex: 0
  m_Mute: 0
  m_Solo: 0
  m_BypassEffects: 0
